<svg width="518" height="962" viewBox="0 0 518 962" fill="none" xmlns="http://www.w3.org/2000/svg">
<path fill-rule="evenodd" clip-rule="evenodd" d="M-140.516 141.342L-43.7205 310.59L-118.669 143.191C-54.8171 43.3552 68.2354 9.3811 107.082 0.671184L129.781 4.71601C163.872 26.5705 270.465 103.625 293.603 222.877L124.732 404.951L297.088 247.934C452.219 286.21 516.853 464.589 516.853 464.589L517.162 486.56C517.162 486.56 457.572 666.738 303.732 709.308L127.025 557.047L300.951 734.3C281.025 854.363 176.638 934.129 143.178 957.087L120.603 961.872C81.5266 954.258 -42.4349 923.604 -109.068 825.758L-43.7205 655.451L-130.851 828.427C-339.047 811.488 -401.25 612.987 -371.063 498.297C-358.257 478.518 -167.074 477.603 -97.5524 474.47C-196.346 471.541 -347.28 478.518 -373.808 466.28C-405.824 232.104 -324.411 156.525 -140.516 141.342ZM23.5251 521.023C31.135 520.906 38.5395 518.536 44.8033 514.213C51.067 509.89 55.909 503.807 58.7176 496.733C61.5263 489.66 62.1755 481.912 60.5834 474.47C58.9913 467.028 55.2292 460.224 49.7723 454.918C44.3155 449.613 37.4087 446.044 29.9245 444.662C22.4402 443.279 14.7142 444.146 7.72236 447.153C0.730513 450.159 -5.21351 455.171 -9.35882 461.553C-13.5041 467.936 -15.6647 475.405 -15.5679 483.015C-15.5033 488.088 -14.4368 493.098 -12.4294 497.758C-10.4222 502.418 -7.51374 506.635 -3.87136 510.167C-0.228915 513.699 4.07559 516.476 8.79485 518.339C13.5141 520.202 18.5549 521.113 23.6277 521.022L23.5251 521.023Z" fill="#FDFDFD"/>
</svg>
