<svg width="125" height="48" viewBox="0 0 125 48" fill="none" xmlns="http://www.w3.org/2000/svg">
<path fill-rule="evenodd" clip-rule="evenodd" d="M48.1362 40.5623C46.9795 40.5715 45.8329 40.3474 44.7649 39.9035C43.7291 39.4759 42.7927 38.8395 42.0138 38.0339C41.2111 37.2156 40.5804 36.2449 40.159 35.179C39.7173 34.0523 39.4947 32.8516 39.5032 31.6415V25.7358C39.4948 24.5266 39.7174 23.327 40.159 22.2013C40.581 21.1356 41.2116 20.165 42.0138 19.3464C42.7934 18.5409 43.7296 17.9036 44.7649 17.4738C46.0519 16.9587 47.4391 16.7424 48.8219 16.8411C50.2047 16.9398 51.547 17.351 52.7479 18.0436C53.8869 18.7836 54.851 19.7629 55.5732 20.9133C55.8378 21.2878 55.9761 21.7369 55.9679 22.1953C55.9725 22.4499 55.9243 22.7027 55.8262 22.9377C55.7281 23.1727 55.5823 23.3847 55.3981 23.5605C55.2012 23.7497 54.9685 23.8978 54.7138 23.9961C54.459 24.0945 54.1872 24.1411 53.9142 24.1332C53.641 24.1342 53.3712 24.0733 53.1248 23.9552C52.8782 23.8403 52.6715 23.6542 52.5313 23.421C52.2896 23.0271 52.0281 22.6458 51.7478 22.2784C51.5107 21.9884 51.2363 21.7309 50.9317 21.5128C50.2402 21.0409 49.3054 20.8035 48.1183 20.8035C47.489 20.7977 46.8645 20.9126 46.2784 21.1418C45.7198 21.359 45.2139 21.6929 44.7945 22.1212C44.3501 22.5654 44.0061 23.0997 43.7855 23.6881C43.5471 24.3317 43.4294 25.0138 43.4383 25.7002V31.6771C43.4294 32.3634 43.5471 33.0455 43.7855 33.6892C44.0053 34.278 44.3495 34.8124 44.7945 35.2561C45.2131 35.6854 45.7192 36.0194 46.2784 36.2355C46.8639 36.4671 47.4887 36.583 48.1183 36.5767C49.2896 36.5767 50.2214 36.3334 50.9139 35.8467C51.2305 35.6257 51.5151 35.362 51.7597 35.0632C52.0432 34.7133 52.3011 34.3433 52.5313 33.9563C52.6759 33.7311 52.8818 33.5519 53.1248 33.4399C53.3714 33.3228 53.6413 33.2629 53.9142 33.2648C54.187 33.2564 54.4587 33.3025 54.7135 33.4003C54.9683 33.4982 55.201 33.6458 55.3981 33.8346C55.5887 34.0148 55.7399 34.2326 55.8421 34.4742C55.9442 34.7158 55.9951 34.976 55.9916 35.2383C55.9693 35.6954 55.8203 36.1372 55.5613 36.5144C55.2124 37.0559 54.8075 37.5592 54.3534 38.0161C53.366 39.0768 52.1033 39.8422 50.7062 40.227C49.8723 40.463 49.0085 40.5759 48.1421 40.5623" fill="white"/>
<path fill-rule="evenodd" clip-rule="evenodd" d="M65.3786 36.6242C66.0043 36.6264 66.6241 36.5023 67.2007 36.2591C67.7669 36.023 68.2805 35.6768 68.712 35.2408C69.1435 34.8047 69.4842 34.2874 69.7143 33.7188C70.1941 32.5576 70.1941 31.2535 69.7143 30.0923C69.4831 29.5287 69.1456 29.0148 68.7202 28.5788C68.2875 28.1454 67.7731 27.8024 67.2067 27.5698C66.6273 27.329 66.0059 27.2059 65.3786 27.2077C64.7614 27.2059 64.15 27.327 63.5801 27.5638C62.4377 28.0415 61.5293 28.9499 61.0517 30.0923C60.5719 31.2535 60.5719 32.5576 61.0517 33.7188C61.5334 34.8541 62.4304 35.7628 63.5594 36.2591C64.1346 36.5034 64.7536 36.6276 65.3786 36.6242ZM65.3786 40.5742C64.2335 40.5755 63.1002 40.3422 62.0488 39.8886C59.9513 39.001 58.2815 37.3322 57.3925 35.2353C56.9445 34.1786 56.7173 33.0414 56.7248 31.8937C56.7211 30.7419 56.9502 29.6012 57.3985 28.5402C57.8398 27.4963 58.4752 26.5456 59.2711 25.7387C60.0666 24.9408 61.0101 24.3057 62.0488 23.8691C63.1036 23.4244 64.2368 23.1953 65.3815 23.1953C66.5262 23.1953 67.6594 23.4244 68.7142 23.8691C69.7557 24.3049 70.7007 24.9423 71.4949 25.7446C72.2875 26.5507 72.9208 27.4992 73.3616 28.5402C73.8089 29.6006 74.039 30.7399 74.0383 31.8907V38.4968C74.0412 38.7625 73.9901 39.0261 73.888 39.2714C73.786 39.5168 73.6352 39.7389 73.4447 39.9242C73.1061 40.2668 72.6561 40.4769 72.176 40.5166C71.696 40.5564 71.2176 40.4231 70.8272 40.1409C70.4932 39.887 70.2556 39.527 70.1536 39.12C68.7434 40.0705 67.0791 40.5732 65.3786 40.5623V40.5742Z" fill="white"/>
<path fill-rule="evenodd" clip-rule="evenodd" d="M102.024 40.5802C100.865 40.587 99.7163 40.3641 98.644 39.9243C96.5525 39.0472 94.8838 37.3913 93.9906 35.3066C93.5438 34.2435 93.3186 33.1004 93.3288 31.9472V20.0201C93.3215 19.7546 93.3706 19.4906 93.4729 19.2456C93.5753 19.0005 93.7284 18.78 93.9224 18.5986C94.1021 18.4105 94.3181 18.2609 94.5574 18.1589C94.7966 18.0569 95.0541 18.0045 95.3142 18.005C95.8507 17.9988 96.368 18.2047 96.7536 18.5778C96.951 18.762 97.1084 18.9848 97.2161 19.2324C97.3239 19.48 97.3795 19.7471 97.3797 20.0171V22.8839H103.612C104.14 22.887 104.645 23.0981 105.019 23.4714C105.392 23.8448 105.603 24.3502 105.606 24.8782C105.605 25.1272 105.55 25.3731 105.446 25.5993C105.343 25.828 105.199 26.0362 105.022 26.2136C104.837 26.3992 104.618 26.5453 104.375 26.6433C104.133 26.7412 103.873 26.7889 103.612 26.7834H97.3797V31.9798C97.3752 32.598 97.4921 33.2111 97.724 33.7842C97.9503 34.3395 98.2853 34.844 98.7093 35.268C99.1291 35.703 99.6343 36.0465 100.193 36.2771C100.775 36.5126 101.397 36.6306 102.024 36.6243C103.123 36.6549 104.195 36.281 105.036 35.5737C105.258 35.3704 105.506 35.1969 105.772 35.0573C106.101 34.9079 106.468 34.8633 106.824 34.9296C107.179 34.996 107.505 35.1701 107.758 35.4283C108.112 35.7898 108.311 36.2754 108.313 36.7816C108.32 37.0936 108.26 37.4036 108.136 37.6901C108.012 37.9766 107.827 38.2326 107.594 38.4405C106.867 39.1405 106.005 39.6848 105.06 40.0401C104.089 40.4013 103.06 40.5823 102.024 40.5743" fill="white"/>
<path fill-rule="evenodd" clip-rule="evenodd" d="M116.99 40.5623C115.878 40.57 114.775 40.3488 113.752 39.9124C112.743 39.4878 111.828 38.8675 111.061 38.0872C110.295 37.3106 109.685 36.395 109.262 35.3896C108.837 34.3705 108.62 33.2768 108.624 32.1726V25.2016C108.644 24.691 108.861 24.208 109.229 23.8537C109.597 23.4995 110.088 23.3017 110.599 23.3017C111.11 23.3017 111.601 23.4995 111.969 23.8537C112.338 24.208 112.554 24.691 112.574 25.2016V32.1934C112.569 32.7864 112.685 33.374 112.915 33.9206C113.133 34.4479 113.453 34.927 113.856 35.3303C114.259 35.7337 114.738 36.0534 115.266 36.271C115.811 36.5009 116.398 36.617 116.99 36.6123C117.559 36.6184 118.123 36.502 118.643 36.271C119.139 36.0476 119.583 35.7208 119.943 35.3125C120.31 34.9079 120.59 34.4321 120.765 33.9147C120.961 33.3498 121.062 32.7559 121.062 32.1578V25.2016C121.059 24.94 121.113 24.6809 121.219 24.4418C121.382 24.085 121.643 23.7817 121.971 23.5669C122.299 23.3521 122.682 23.2346 123.074 23.228C123.333 23.2268 123.589 23.2789 123.827 23.381C124.065 23.4831 124.279 23.6331 124.457 23.8216C124.626 24.0062 124.758 24.2219 124.845 24.4567C124.948 24.6968 125 24.9553 125 25.2164V32.1726C125.008 33.2816 124.806 34.3821 124.406 35.4163C124.018 36.4089 123.447 37.3199 122.724 38.1021C122.005 38.8818 121.132 39.5033 120.159 39.9272C119.162 40.3645 118.082 40.586 116.993 40.5771" fill="white"/>
<path fill-rule="evenodd" clip-rule="evenodd" d="M83.4635 36.6242C84.3939 36.6274 85.304 36.3526 86.0771 35.8349C86.8502 35.3172 87.4509 34.5803 87.8022 33.7188C88.282 32.5576 88.282 31.2536 87.8022 30.0923C87.5713 29.5278 87.2326 29.0138 86.8051 28.5788C86.3735 28.1442 85.8588 27.801 85.2916 27.5698C84.7124 27.3287 84.0909 27.2056 83.4635 27.2077C82.8464 27.2063 82.2351 27.3273 81.6651 27.5639C81.098 27.798 80.5834 28.1431 80.1515 28.5788C79.7158 29.01 79.3715 29.5248 79.1396 30.0923C78.6598 31.2536 78.6598 32.5576 79.1396 33.7188C79.619 34.8557 80.5167 35.7651 81.6473 36.2592C82.2214 36.5037 82.8395 36.628 83.4635 36.6242ZM83.4635 40.5742C82.3184 40.5756 81.1852 40.3422 80.1337 39.8887C78.0379 38.9996 76.3694 37.3311 75.4804 35.2353C75.0324 34.1786 74.8052 33.0415 74.8127 31.8937C74.809 30.7419 75.0381 29.6012 75.4864 28.5402C75.9265 27.4957 76.5621 26.5449 77.359 25.7387C78.1539 24.9415 79.0963 24.3065 80.1337 23.8691C81.1882 23.4235 82.3211 23.1934 83.4658 23.1924C84.6106 23.1914 85.7439 23.4194 86.7992 23.8632C87.8412 24.2996 88.787 24.9369 89.5828 25.7387C90.3755 26.5441 91.008 27.4928 91.4466 28.5343C91.8913 29.5981 92.1164 30.7408 92.1083 31.8937V39.1289C92.1161 40.2388 91.9148 41.3402 91.5148 42.3756C91.1238 43.3622 90.5532 44.2678 89.8321 45.0465C89.1126 45.8247 88.2396 46.4451 87.268 46.8686C86.2697 47.3046 85.1909 47.526 84.1015 47.5186C80.941 47.5186 81.033 43.5686 84.1015 43.5686C84.6706 43.5747 85.2344 43.4583 85.7545 43.2273C86.2506 43.0031 86.6936 42.6764 87.0544 42.2687C87.4189 41.8628 87.6975 41.3873 87.8735 40.871C88.0652 40.3202 88.1654 39.7418 88.1702 39.1586C86.7745 40.0814 85.1367 40.5699 83.4635 40.5623V40.5742Z" fill="white"/>
<path fill-rule="evenodd" clip-rule="evenodd" d="M36.9426 43.1888L36.3817 38.2743L33.9334 16.8743C33.7078 14.9097 32.592 13.2004 30.933 12.4911V18.3523C30.933 18.5226 30.8995 18.6912 30.8343 18.8485C30.7691 19.0059 30.6736 19.1489 30.5532 19.2693C30.4328 19.3897 30.2898 19.4852 30.1324 19.5504C29.9751 19.6156 29.8065 19.6491 29.6362 19.6491H26.1491C25.8057 19.6483 25.4766 19.5114 25.234 19.2682C24.9914 19.0251 24.8552 18.6957 24.8552 18.3523V12.1201H12.0942V18.3523C12.0943 18.6911 11.9617 19.0166 11.7249 19.2589C11.488 19.5013 11.1657 19.6414 10.827 19.6491H7.33103C7.16111 19.6487 6.99294 19.6149 6.8361 19.5495C6.67927 19.4841 6.53684 19.3885 6.41697 19.2681C6.29709 19.1476 6.20211 19.0048 6.13745 18.8476C6.07278 18.6905 6.0397 18.5222 6.04009 18.3523V12.4851C4.37522 13.1944 3.26827 14.9097 3.03383 16.8743L0.588453 38.2743L0.0245931 43.1888C-0.272175 45.7825 2.16429 47.9371 4.77289 47.9371H32.1943C34.797 47.9341 37.2394 45.7825 36.9426 43.1888ZM20.6203 22.1984L20.1099 22.2963C19.3472 22.8008 16.9641 24.5725 16.4834 27.2701L20.3414 31.324L16.4181 27.837C12.934 28.748 11.5333 32.793 11.5333 32.793V33.2886C11.5333 33.2886 12.934 37.3336 16.4181 38.2446L20.3592 34.7546L16.5012 38.8085C16.9819 41.5091 19.365 43.2808 20.1277 43.7823L20.6381 43.8832C21.5284 43.6992 24.3032 42.9692 25.7752 40.7405L24.1281 36.2058L26.2589 40.779C27.4267 40.812 28.5861 40.5722 29.6451 40.0787C28.1468 42.2176 26.0057 43.8233 23.5327 44.6624C21.0597 45.5016 18.3836 45.5305 15.8931 44.745C13.4025 43.9595 11.2272 42.4005 9.68311 40.2944C8.139 38.1884 7.30648 35.6449 7.30648 33.0334C7.30648 30.4219 8.139 27.8784 9.68311 25.7723C11.2272 23.6663 13.4025 22.1073 15.8931 21.3218C18.3836 20.5363 21.0597 20.5652 23.5327 21.4043C26.0057 22.2435 28.1468 23.8491 29.6451 25.9881C28.5868 25.4929 27.4268 25.2539 26.2589 25.2907L24.1192 29.8758L25.7663 25.3471C24.2943 23.1094 21.5106 22.3794 20.6203 22.1984ZM23.5376 33.0393C23.5381 33.2114 23.4876 33.3798 23.3925 33.5232C23.2973 33.6666 23.1617 33.7785 23.0028 33.8448C22.844 33.911 22.6691 33.9287 22.5002 33.8955C22.3314 33.8623 22.1761 33.7797 22.0542 33.6582C21.9323 33.5367 21.8492 33.3818 21.8154 33.213C21.7816 33.0443 21.7987 32.8693 21.8644 32.7102C21.9301 32.5512 22.0416 32.4152 22.1846 32.3195C22.3277 32.2238 22.4959 32.1728 22.668 32.1728C22.7827 32.1716 22.8965 32.1931 23.0028 32.2361C23.1092 32.2791 23.2059 32.3427 23.2876 32.4232C23.3692 32.5038 23.4341 32.5997 23.4786 32.7054C23.523 32.8111 23.5461 32.9246 23.5465 33.0393H23.5376Z" fill="white"/>
<path fill-rule="evenodd" clip-rule="evenodd" d="M18.4806 0C21.3731 0.00860742 24.1447 1.16126 26.1903 3.2063C28.2359 5.25134 29.3893 8.02264 29.3987 10.9151V18.1949H26.3836V10.9151C26.3836 8.81915 25.5509 6.809 24.0688 5.32692C22.5867 3.84483 20.5766 3.0122 18.4806 3.0122C16.3846 3.0122 14.3745 3.84483 12.8924 5.32692C11.4103 6.809 10.5777 8.81915 10.5777 10.9151V18.1949H7.5625V10.9151C7.57112 8.0224 8.72427 5.25065 10.77 3.20544C12.8158 1.16023 15.5879 0.00782873 18.4806 0Z" fill="white"/>
</svg>
