<svg width="11" height="16" viewBox="0 0 11 16" fill="none" xmlns="http://www.w3.org/2000/svg">
<path d="M5.5 0C2.45929 0 0 2.504 0 5.6C0 9.8 5.5 16 5.5 16C5.5 16 11 9.8 11 5.6C11 2.504 8.54071 0 5.5 0ZM1.57143 5.6C1.57143 3.392 3.33143 1.6 5.5 1.6C7.66857 1.6 9.42857 3.392 9.42857 5.6C9.42857 7.904 7.16571 11.352 5.5 13.504C3.86571 11.368 1.57143 7.88 1.57143 5.6Z" fill="white"/>
<path d="M5.49944 7.6001C6.58429 7.6001 7.46373 6.70467 7.46373 5.6001C7.46373 4.49553 6.58429 3.6001 5.49944 3.6001C4.4146 3.6001 3.53516 4.49553 3.53516 5.6001C3.53516 6.70467 4.4146 7.6001 5.49944 7.6001Z" fill="white"/>
</svg>
